<?xml version="1.0" encoding="UTF-8" standalone="no"?>
<svg
   xmlns:dc="http://purl.org/dc/elements/1.1/"
   xmlns:cc="http://creativecommons.org/ns#"
   xmlns:rdf="http://www.w3.org/1999/02/22-rdf-syntax-ns#"
   xmlns:svg="http://www.w3.org/2000/svg"
   xmlns="http://www.w3.org/2000/svg"
   xmlns:sodipodi="http://sodipodi.sourceforge.net/DTD/sodipodi-0.dtd"
   xmlns:inkscape="http://www.inkscape.org/namespaces/inkscape"
   id="Layer_1"
   data-name="Layer 1"
   viewBox="0 0 35 35"
   version="1.1"
   sodipodi:docname="hot-potato-favicon-optimised.svg"
   width="35"
   height="35"
   inkscape:version="0.92.3 (unknown)"
   inkscape:export-filename="/home/opal/catinternal/hotpotato/brand/logo/hot-potato-favicon-76x76.png"
   inkscape:export-xdpi="208.45714"
   inkscape:export-ydpi="208.45714">
  <metadata
     id="metadata29">
    <rdf:RDF>
      <cc:Work
         rdf:about="">
        <dc:format>image/svg+xml</dc:format>
        <dc:type
           rdf:resource="http://purl.org/dc/dcmitype/StillImage" />
        <dc:title>hot-potato-logo</dc:title>
      </cc:Work>
    </rdf:RDF>
  </metadata>
  <defs
     id="defs27" />
  <sodipodi:namedview
     pagecolor="#ffffff"
     bordercolor="#666666"
     borderopacity="1"
     objecttolerance="10"
     gridtolerance="10"
     guidetolerance="10"
     inkscape:pageopacity="0"
     inkscape:pageshadow="2"
     inkscape:window-width="1920"
     inkscape:window-height="1016"
     id="namedview25"
     showgrid="false"
     inkscape:pagecheckerboard="true"
     inkscape:zoom="18.667619"
     inkscape:cx="19.768598"
     inkscape:cy="14.861496"
     inkscape:window-x="0"
     inkscape:window-y="27"
     inkscape:window-maximized="1"
     inkscape:current-layer="Layer_1" />
  <title
     id="title2">hot-potato-logo</title>
  <g
     id="g4558"
     transform="matrix(1.048103,0,0,1.048103,-0.84180266,-0.84180243)">
    <rect
       y="17.108055"
       x="12.052957"
       height="12.74935"
       width="10.124483"
       id="rect4554"
       style="fill:#ffffff;fill-opacity:1;stroke-width:4.70678806;stroke-linecap:square;stroke-linejoin:miter;stroke-miterlimit:4;stroke-dasharray:none" />
    <path
       style="fill:#f5512a"
       inkscape:connector-curvature="0"
       id="path22"
       d="m 29.795517,23.119305 a 1.79,1.79 0 0 0 -0.82,-0.71 0.32,0.32 0 0 0 -0.46,0.29 c 0,1.16 -0.83,2.43 -2.42,1.85 a 0.46,0.46 0 0 1 -0.14,-0.07 2.64,2.64 0 0 1 -0.86,-2.8 c 0.38,-1.75 1.67,-3 2.37,-4.65 a 9.23,9.23 0 0 0 -1.07,-8.9099999 0.82,0.82 0 0 0 -1.46,0.62 v 0 c 0.2,2.1499999 -1.15,4.9999999 -4.16,4.0699999 a 0.84,0.84 0 0 1 -0.47,-0.4 c -1.89,-3.4799999 1.82,-4.9999999 0.75,-8.2299999 a 4.78,4.78 0 0 0 -2.82,-2.84 0.82,0.82 0 0 0 -1.09,1 3.11,3.11 0 0 1 -0.11,1.89 2.52,2.52 0 0 1 -1.39,1.18 c -2.06,0.86 -4.72,0.49 -6.0000003,2.64 a 4.24,4.24 0 0 0 -0.42,3.3299999 c 0.44,1.79 1.6100003,3.51 1.4900003,5.43 a 0.82,0.82 0 0 1 -0.06,0.27 c -1.0000003,2.43 -3.0000003,1.65 -3.6200003,0.13 a 1.08,1.08 0 0 1 -0.08,-0.19 0.81,0.81 0 0 0 -1.5,0 7.69,7.69 0 0 0 -0.49,2.78 14.06,14.06 0 0 0 1.1,5.8 c 0.22,0.53 0.47,1 0.74,1.56 4.7800003,9 18.4600003,8.74 22.7600003,-0.78 a 4,4 0 0 0 0.23,-3.26 z m -9.35,5.76 c -2,1.67 -5,0.3 -6.49,-1.37 -2.21,-2.39 -2.12,-5.53 -0.48,-8.39 0.81,-1.4 2,-2.41 3.58,-1.66 1.58,0.75 1.58,2.42 2.39,3.89 v 0.06 c 0.69,1.2 2.12,1.95 2.36,3.39 a 4.27,4.27 0 0 1 -1.36,4.08 z" />
  </g>
</svg>
